# This file uses centimeters as units for non-parametric coordinates.

mtllib Cap.mtl
g default
v 0.038420 1.693982 -0.083586
v -0.037894 1.693925 -0.083830
v -0.086383 1.707941 -0.023734
v -0.086588 1.727819 0.061499
v -0.038420 1.740313 0.118320
v 0.037894 1.740338 0.118568
v 0.086383 1.727956 0.062087
v 0.086588 1.708078 -0.023146
v 0.028005 1.791436 -0.085488
v -0.027621 1.791395 -0.085666
v -0.062099 1.801611 -0.041861
v -0.067227 1.816101 0.020267
v -0.028005 1.826375 0.064323
v 0.027621 1.826417 0.064500
v 0.067068 1.816200 0.020695
v 0.062262 1.801711 -0.041432
v 0.000000 1.679890 0.019176
v -0.000000 1.821203 -0.010583
v 0.090166 1.738087 0.057689
v 0.037134 1.758707 0.115280
v -0.037650 1.758682 0.115036
v -0.090380 1.737952 0.057112
v -0.087332 1.718786 -0.025071
v -0.038847 1.704419 -0.086671
v 0.039376 1.704478 -0.086421
v 0.087546 1.718926 -0.024469
v -0.047648 1.821230 0.042259
v -0.074699 1.742656 0.083071
v -0.076227 1.732715 0.086826
v 0.047519 1.821263 0.042404
v 0.074527 1.742644 0.083265
v 0.076051 1.732699 0.087023
v -0.065368 1.734163 0.142315
v -0.038420 1.742423 0.173894
v -0.037650 1.746017 0.168713
v -0.064058 1.744104 0.138561
v 0.037894 1.742448 0.174143
v 0.037134 1.746042 0.168956
v 0.065192 1.734146 0.142513
v 0.063885 1.744091 0.138755
v -0.082173 1.770692 0.041847
v -0.078009 1.753152 -0.033362
v -0.034698 1.740319 -0.088389
v 0.035179 1.740370 -0.088166
v 0.078210 1.753277 -0.032824
v 0.081984 1.770814 0.042371
v 0.063911 1.774809 0.068906
v 0.033766 1.788266 0.095916
v -0.034230 1.788215 0.095699
v -0.064062 1.774786 0.068730
vt 0.930572 0.074476
vt 0.779681 0.011975
vt 0.628789 0.074476
vt 0.566288 0.225367
vt 0.628789 0.376259
vt 0.779681 0.438760
vt 0.930572 0.376259
vt 0.993074 0.225367
vt 0.892844 0.461981
vt 0.893153 0.528382
vt 0.893461 0.594783
vt 0.893770 0.661184
vt 0.894079 0.727585
vt 0.894388 0.793985
vt 0.894697 0.860386
vt 0.895005 0.926787
vt 0.895314 0.993188
vt 0.094036 0.465696
vt 0.094345 0.532097
vt 0.094653 0.598498
vt 0.094962 0.664899
vt 0.095271 0.731300
vt 0.095580 0.797700
vt 0.095889 0.864101
vt 0.096197 0.930502
vt 0.096506 0.996903
vt 0.373873 0.072610
vt 0.222982 0.010109
vt 0.072090 0.072610
vt 0.009589 0.223502
vt 0.072090 0.374393
vt 0.222982 0.436895
vt 0.373873 0.374393
vt 0.436375 0.223502
vt 0.779681 0.216832
vt 0.222982 0.214966
vt 0.799725 0.860828
vt 0.799416 0.794427
vt 0.799107 0.728026
vt 0.798799 0.661625
vt 0.798490 0.595224
vt 0.798181 0.528824
vt 0.800343 0.993630
vt 0.797872 0.462423
vt 0.800034 0.927229
vt 0.040789 0.148178
vt 0.095116 0.698046
vt 0.798953 0.694772
vt 0.893924 0.694331
vt 0.597488 0.300692
vt 0.299096 0.041637
vt 0.095736 0.831195
vt 0.799572 0.827922
vt 0.894543 0.827480
vt 0.855795 0.407233
vt 0.893924 0.694331
vt 0.894079 0.727585
vt 0.799107 0.728026
vt 0.798953 0.694772
vt 0.894388 0.793985
vt 0.799416 0.794427
vt 0.894543 0.827480
vt 0.799572 0.827922
vt 0.490360 0.663060
vt 0.490051 0.596659
vt 0.489742 0.530258
vt 0.491904 0.995064
vt 0.489433 0.463857
vt 0.491595 0.928663
vt 0.491286 0.862263
vt 0.491133 0.829356
vt 0.490977 0.795862
vt 0.490668 0.729461
vt 0.490514 0.696207
vn 0.236361 -0.931173 -0.277579
vn -0.233111 -0.931604 -0.278878
vn -0.454077 -0.054349 -0.889303
vn 0.459876 -0.053661 -0.886360
vn -0.527700 -0.849315 0.014037
vn -0.942997 0.064683 -0.326454
vn -0.432805 -0.840057 0.327086
vn -0.979105 0.183577 0.087475
vn -0.022222 -0.992996 0.116038
vn 0.003483 -0.992908 0.118833
vn -0.114445 0.953924 0.277365
vn -0.557772 0.808723 0.186699
vn -0.003879 -0.992871 0.119127
vn 0.113139 0.954031 0.277534
vn 0.313642 -0.862989 0.396078
vn 0.431415 -0.840089 0.328835
vn 0.978618 0.184321 0.091281
vn 0.749306 0.516703 0.414196
vn 0.528687 -0.848654 0.016625
vn 0.944553 0.065975 -0.321663
vn -0.000052 -0.977298 0.211872
vn -0.028448 -0.964641 0.262028
vn -0.315987 -0.862296 0.395725
vn 0.027062 -0.964822 0.261509
vn 0.061186 0.935210 -0.348768
vn -0.060330 0.935153 -0.349068
vn -0.000007 0.974610 -0.223909
vn -0.156875 0.946647 -0.281513
vn -0.154656 0.972125 -0.176225
vn -0.127920 0.984997 -0.115837
vn -0.065488 0.993502 -0.093083
vn 0.064597 0.993591 -0.092755
vn 0.127214 0.985162 -0.115203
vn 0.154352 0.972313 -0.175451
vn 0.157307 0.946801 -0.280754
vn 0.941774 0.329319 0.067911
vn 0.717986 0.482157 0.502017
vn -0.313036 0.550603 0.773851
vn 0.309451 0.550816 0.775140
vn 0.288587 0.596538 0.748906
vn -0.292396 0.596202 0.747695
vn -0.752814 0.513635 0.411643
vn -0.721340 0.481257 0.498057
vn -0.942365 0.328348 0.064306
vn -0.907920 0.184543 -0.376332
vn -0.428454 0.057918 -0.901706
vn 0.434101 0.058596 -0.898956
vn 0.909533 0.185837 -0.371771
vn 0.021250 -0.993018 0.116036
vn 0.554813 0.810702 0.186936
vn -0.141206 0.969901 0.198374
vn 0.139336 0.970211 0.198184
vn -0.932731 0.356597 0.053401
vn -0.893110 0.214387 -0.395465
vn -0.416727 0.105878 -0.902845
vn 0.422180 0.106511 -0.900233
vn 0.894763 0.215659 -0.391013
vn 0.932127 0.357628 0.056933
vn 0.705666 0.512845 0.488901
vn 0.288494 0.636592 0.715207
vn -0.292543 0.636122 0.713980
vn -0.709096 0.511632 0.485197
s 1
g pCylinder1
usemtl blinn3SG
f 1/9/1 2/10/2 24/42/3 25/44/4
f 2/10/2 3/11/5 23/41/6 24/42/3
f 3/11/5 4/12/7 22/40/8 23/41/6
f 33/56/9 34/57/10 35/58/11 36/59/12
f 34/57/10 37/60/13 38/61/14 35/58/11
f 32/54/15 7/15/16 19/37/17 31/53/18
f 7/15/16 8/16/19 26/45/20 19/37/17
f 8/16/19 1/17/1 25/43/4 26/45/20
f 2/2/2 1/1/1 17/35/21
f 3/3/5 2/2/2 17/35/21
f 4/4/7 3/3/5 17/35/21
f 5/5/22 29/50/23 4/4/7 17/35/21
f 6/6/24 5/5/22 17/35/21
f 7/7/16 32/55/15 6/6/24 17/35/21
f 8/8/19 7/7/16 17/35/21
f 1/1/1 8/8/19 17/35/21
s 4
f 9/33/25 10/32/26 18/36/27
f 10/32/26 11/31/28 18/36/27
f 11/31/28 12/30/29 18/36/27
f 12/30/29 27/46/30 13/29/31 18/36/27
f 13/29/31 14/28/32 18/36/27
f 14/28/32 30/51/33 15/27/34 18/36/27
f 15/27/34 16/34/35 18/36/27
f 16/34/35 9/33/25 18/36/27
s 1
f 31/53/18 19/37/17 46/70/36 47/71/37
f 21/39/38 20/38/39 48/72/40 49/73/41
f 28/48/42 21/39/38 49/73/41 50/74/43
f 23/41/6 22/40/8 41/64/44 42/65/45
f 24/42/3 23/41/6 42/65/45 43/66/46
f 25/44/4 24/42/3 43/66/46 44/68/47
f 26/45/20 25/43/4 44/67/47 45/69/48
f 19/37/17 26/45/20 45/69/48 46/70/36
f 22/40/8 28/48/42 50/74/43 41/64/44
f 4/12/7 29/49/23 28/48/42 22/40/8
f 20/38/39 31/53/18 47/71/37 48/72/40
f 37/60/13 39/62/49 40/63/50 38/61/14
f 29/49/23 5/13/22 34/57/10 33/56/9
f 21/39/51 28/48/42 36/59/12 35/58/11
f 28/48/42 29/49/23 33/56/9 36/59/12
f 5/13/22 6/14/24 37/60/13 34/57/10
f 20/38/52 21/39/51 35/58/11 38/61/14
f 6/14/24 32/54/15 39/62/49 37/60/13
f 32/54/15 31/53/18 40/63/50 39/62/49
f 31/53/18 20/38/52 38/61/14 40/63/50
f 42/65/45 41/64/44 12/21/53 11/20/54
f 43/66/46 42/65/45 11/20/54 10/19/55
f 44/68/47 43/66/46 10/19/55 9/18/56
f 45/69/48 44/67/47 9/26/56 16/25/57
f 46/70/36 45/69/48 16/25/57 15/24/58
f 47/71/37 46/70/36 15/24/58 30/52/59
f 48/72/40 47/71/37 30/52/59 14/23/60
f 49/73/41 48/72/40 14/23/60 13/22/61
f 50/74/43 49/73/41 13/22/61 27/47/62
f 41/64/44 50/74/43 27/47/62 12/21/53
