%YAML 1.1
%TAG !u! tag:unity3d.com,2011:
--- !u!21 &2100000
Material:
  serializedVersion: 5
  m_ObjectHideFlags: 0
  m_PrefabParentObject: {fileID: 0}
  m_PrefabInternal: {fileID: 0}
  m_Name: Material.004
  m_Shader: {fileID: 4800000, guid: 79f3f75854ba698468a0d27bc611eb1a, type: 3}
  m_ShaderKeywords: 
  m_LightmapFlags: 5
  m_CustomRenderQueue: -1
  m_SavedProperties:
    serializedVersion: 2
    m_TexEnvs:
      data:
        first:
          name: _MainTex
        second:
          m_Texture: {fileID: 0}
          m_Scale: {x: 1, y: 1}
          m_Offset: {x: 0, y: 0}
      data:
        first:
          name: _node_1129
        second:
          m_Texture: {fileID: 0}
          m_Scale: {x: 1, y: 1}
          m_Offset: {x: 0, y: 0}
      data:
        first:
          name: _node_253
        second:
          m_Texture: {fileID: 2800000, guid: 012a0fac7918f5e4faa888ab74bde203, type: 3}
          m_Scale: {x: 1, y: 1}
          m_Offset: {x: 0, y: 0}
      data:
        first:
          name: _node_7125
        second:
          m_Texture: {fileID: 2800000, guid: 28c7aad1372ff114b90d330f8a2dd938, type: 3}
          m_Scale: {x: 1, y: 1}
          m_Offset: {x: 0, y: 0}
      data:
        first:
          name: _ref
        second:
          m_Texture: {fileID: 2800000, guid: 012a0fac7918f5e4faa888ab74bde203, type: 3}
          m_Scale: {x: 1, y: 1}
          m_Offset: {x: 0, y: 0}
      data:
        first:
          name: _Noise
        second:
          m_Texture: {fileID: 2800000, guid: 28c7aad1372ff114b90d330f8a2dd938, type: 3}
          m_Scale: {x: 1, y: 1}
          m_Offset: {x: 0, y: 0}
    m_Floats:
      data:
        first:
          name: _Cutoff
        second: .5
      data:
        first:
          name: _node_6335
        second: 1
      data:
        first:
          name: _slider
        second: 1
    m_Colors:
      data:
        first:
          name: _Color
        second: {r: .800000012, g: .445423603, b: .538255513, a: 1}
      data:
        first:
          name: _node_4315
        second: {r: 0, g: .00689649582, b: 1, a: 0}
      data:
        first:
          name: _color
        second: {r: 0, g: .379310399, b: 1, a: 1}
