%YAML 1.1
%TAG !u! tag:unity3d.com,2011:
--- !u!74 &7400000
AnimationClip:
  m_ObjectHideFlags: 0
  m_PrefabParentObject: {fileID: 0}
  m_PrefabInternal: {fileID: 0}
  m_Name: Arm Throw 2
  serializedVersion: 6
  m_Legacy: 0
  m_Compressed: 0
  m_UseHighQualityCurve: 1
  m_RotationCurves:
  - curve:
      serializedVersion: 2
      m_Curve:
      - time: 0
        value: {x: -.0599650145, y: .0182851218, z: .130139634, w: .989511788}
        inSlope: {x: 2.89389205, y: 2.71184707, z: -.353997022, w: .0382840596}
        outSlope: {x: 2.89389205, y: 2.71184707, z: -.353997022, w: .0382840596}
        tangentMode: 0
      - time: .0166666675
        value: {x: -.0117334761, y: .0634825751, z: .124239683, w: .990149856}
        inSlope: {x: 2.87006116, y: 2.72569299, z: -.498672485, w: -.0790268108}
        outSlope: {x: 2.87006116, y: 2.72569299, z: -.498672485, w: -.0790268108}
        tangentMode: 0
      - time: .0333333351
        value: {x: .0357036963, y: .109141558, z: .113517217, w: .986877561}
        inSlope: {x: 2.80880952, y: 2.74226904, z: -.784535527, w: -.315506428}
        outSlope: {x: 2.80880952, y: 2.74226904, z: -.784535527, w: -.315506428}
        tangentMode: 0
      - time: .0500000045
        value: {x: .0818935186, y: .154891551, z: .0980884954, w: .979632974}
        inSlope: {x: 2.72083592, y: 2.73640394, z: -1.0621599, w: -.554614663}
        outSlope: {x: 2.72083592, y: 2.73640394, z: -1.0621599, w: -.554614663}
        tangentMode: 0
      - time: .0666666701
        value: {x: .126398236, y: .200355023, z: .078111887, w: .968390405}
        inSlope: {x: 2.60716939, y: 2.70777559, z: -1.32907569, w: -.794175327}
        outSlope: {x: 2.60716939, y: 2.70777559, z: -1.32907569, w: -.794175327}
        tangentMode: 0
      - time: .0833333358
        value: {x: .168799162, y: .24515073, z: .053785976, w: .953160465}
        inSlope: {x: 2.46906757, y: 2.65627766, z: -1.58293533, w: -1.03197467}
        outSlope: {x: 2.46906757, y: 2.65627766, z: -1.58293533, w: -1.03197467}
        tangentMode: 0
      - time: .100000001
        value: {x: .208700478, y: .288897604, z: .0253473781, w: .933991253}
        inSlope: {x: 2.30800176, y: 2.58202362, z: -1.82153308, w: -1.26578641}
        outSlope: {x: 2.30800176, y: 2.58202362, z: -1.82153308, w: -1.26578641}
        tangentMode: 0
      - time: .116666667
        value: {x: .245732546, y: .331218183, z: -.00693178922, w: .910967588}
        inSlope: {x: 2.12563872, y: 2.48533726, z: -2.04282451, w: -1.49340189}
        outSlope: {x: 2.12563872, y: 2.48533726, z: -2.04282451, w: -1.49340189}
        tangentMode: 0
      - time: .13333334
        value: {x: .279555112, y: .371742189, z: -.0427467823, w: .884211183}
        inSlope: {x: 1.92382479, y: 2.36676383, z: -2.24494362, w: -1.71262777}
        outSlope: {x: 1.92382479, y: 2.36676383, z: -2.24494362, w: -1.71262777}
        tangentMode: 0
      - time: .150000006
        value: {x: .309860051, y: .410110325, z: -.0817632526, w: .853879988}
        inSlope: {x: 1.7045753, y: 2.22706795, z: -2.42622042, w: -1.92132187}
        outSlope: {x: 1.7045753, y: 2.22706795, z: -2.42622042, w: -1.92132187}
        tangentMode: 0
      - time: .166666672
        value: {x: .336374283, y: .445977777, z: -.123620786, w: .820167124}
        inSlope: {x: 1.4700402, y: 2.06721878, z: -2.58519363, w: -2.11741471}
        outSlope: {x: 1.4700402, y: 2.06721878, z: -2.58519363, w: -2.11741471}
        tangentMode: 0
      - time: .183333337
        value: {x: .358861387, y: .479017615, z: -.16793637, w: .783299506}
        inSlope: {x: 1.22248304, y: 1.88839412, z: -2.72061968, w: -2.29893231}
        outSlope: {x: 1.22248304, y: 1.88839412, z: -2.72061968, w: -2.29893231}
        tangentMode: 0
      - time: .200000003
        value: {x: .377123713, y: .508924246, z: -.214308098, w: .743536055}
        inSlope: {x: .964280128, y: 1.69195902, z: -2.83148527, w: -2.46400261}
        outSlope: {x: .964280128, y: 1.69195902, z: -2.83148527, w: -2.46400261}
        tangentMode: 0
      - time: .216666669
        value: {x: .391004056, y: .535416245, z: -.262319207, w: .701166093}
        inSlope: {x: .697874188, y: 1.47947264, z: -2.91701841, w: -2.6108911}
        outSlope: {x: .697874188, y: 1.47947264, z: -2.91701841, w: -2.6108911}
        tangentMode: 0
      - time: .233333334
        value: {x: .400386184, y: .558239996, z: -.311542034, w: .65650636}
        inSlope: {x: .425750673, y: 1.25266504, z: -2.97668362, w: -2.73802066}
        outSlope: {x: .425750673, y: 1.25266504, z: -2.97668362, w: -2.73802066}
        tangentMode: 0
      - time: .25
        value: {x: .405195743, y: .577171743, z: -.361541986, w: .609898746}
        inSlope: {x: .15043439, y: 1.0134151, z: -3.01019096, w: -2.84395933}
        outSlope: {x: .15043439, y: 1.0134151, z: -3.01019096, w: -2.84395933}
        tangentMode: 0
      - time: .266666681
        value: {x: .405400664, y: .592020512, z: -.411881775, w: .561707675}
        inSlope: {x: -.125554994, y: .763747692, z: -3.0174942, w: -2.92747688}
        outSlope: {x: -.125554994, y: .763747692, z: -3.0174942, w: -2.92747688}
        tangentMode: 0
      - time: .283333361
        value: {x: .401010573, y: .602630019, z: -.462125212, w: .512316108}
        inSlope: {x: -.399709582, y: .505808771, z: -2.99880099, w: -2.987535}
        outSlope: {x: -.399709582, y: .505808771, z: -2.99880099, w: -2.987535}
        tangentMode: 0
      - time: .300000042
        value: {x: .392076999, y: .608880818, z: -.511841893, w: .462123096}
        inSlope: {x: -.669570923, y: .241849214, z: -2.95454288, w: -3.02329588}
        outSlope: {x: -.669570923, y: .241849214, z: -2.95454288, w: -3.02329588}
        tangentMode: 0
      - time: .316666722
        value: {x: .378691524, y: .610691667, z: -.560610056, w: .411539495}
        inSlope: {x: -.932740092, y: -.0257938877, z: -2.88535714, w: -3.03411222}
        outSlope: {x: -.932740092, y: -.0257938877, z: -2.88535714, w: -3.03411222}
        tangentMode: 0
      - time: .333333403
        value: {x: .360985637, y: .608021021, z: -.608020544, w: .360985935}
        inSlope: {x: 2.21721935, y: -2.41012025, z: 4.54305744, w: 5.31193209}
        outSlope: {x: 2.21721935, y: -2.41012025, z: 4.54305744, w: 5.31193209}
        tangentMode: 0
      - time: .350000083
        value: {x: .4525989, y: .530354261, z: -.409174681, w: .588604033}
        inSlope: {x: 2.8382988, y: -7.41837168, z: 11.8439445, w: 12.7320538}
        outSlope: {x: 2.8382988, y: -7.41837168, z: 11.8439445, w: 12.7320538}
        tangentMode: 0
      - time: .366666764
        value: {x: .455595672, y: .360741764, z: -.213222072, w: .785388052}
        inSlope: {x: -2.07347012, y: -12.4125938, z: 10.591527, w: 9.77498245}
        outSlope: {x: -2.07347012, y: -12.4125938, z: 10.591527, w: 9.77498245}
        tangentMode: 0
      - time: .383333445
        value: {x: .383483171, y: .116600797, z: -.0561234951, w: .914437056}
        inSlope: {x: -5.76774311, y: -15.9353104, z: 7.47378635, w: 4.90384817}
        outSlope: {x: -5.76774311, y: -15.9353104, z: 7.47378635, w: 4.90384817}
        tangentMode: 0
      - time: .400000125
        value: {x: .263337404, y: -.170435712, z: .0359043293, w: .948849797}
        inSlope: {x: -7.59494925, y: -17.2949104, z: 3.21663928, w: -1.12700784}
        outSlope: {x: -7.59494925, y: -17.2949104, z: 3.21663928, w: -1.12700784}
        tangentMode: 0
      - time: .416666806
        value: {x: .130317986, y: -.459896743, z: .0510978997, w: .876870096}
        inSlope: {x: -3.99057913, y: -8.68382359, z: .455806732, w: -2.15938926}
        outSlope: {x: -3.99057913, y: -8.68382359, z: .455806732, w: -2.15938926}
        tangentMode: 0
      - time: .433333486
        value: {x: .130317986, y: -.459896743, z: .0510978997, w: .876870096}
        inSlope: {x: 0, y: 0, z: 0, w: 0}
        outSlope: {x: 0, y: 0, z: 0, w: 0}
        tangentMode: 0
      - time: .450000167
        value: {x: .130317986, y: -.459896743, z: .0510978997, w: .876870096}
        inSlope: {x: 0, y: 0, z: 0, w: 0}
        outSlope: {x: 0, y: 0, z: 0, w: 0}
        tangentMode: 0
      - time: .466666847
        value: {x: .130317986, y: -.459896743, z: .0510978997, w: .876870096}
        inSlope: {x: 0, y: 0, z: 0, w: 0}
        outSlope: {x: 0, y: 0, z: 0, w: 0}
        tangentMode: 0
      - time: .483333528
        value: {x: .130317986, y: -.459896743, z: .0510978997, w: .876870096}
        inSlope: {x: 0, y: 0, z: 0, w: 0}
        outSlope: {x: 0, y: 0, z: 0, w: 0}
        tangentMode: 0
      - time: .500000179
        value: {x: .130317986, y: -.459896743, z: .0510978997, w: .876870096}
        inSlope: {x: -.0318856835, y: .0585356914, z: -.0043208194, w: .0355857946}
        outSlope: {x: -.0318856835, y: .0585356914, z: -.0043208194, w: .0355857946}
        tangentMode: 0
      - time: .51666683
        value: {x: .129255131, y: -.457945555, z: .0509538725, w: .878056288}
        inSlope: {x: -.124306649, y: .228975043, z: -.0159054026, w: .137838855}
        outSlope: {x: -.124306649, y: .228975043, z: -.0159054026, w: .137838855}
        tangentMode: 0
      - time: .53333348
        value: {x: .126174435, y: -.452264249, z: .0505677201, w: .88146472}
        inSlope: {x: -.240533128, y: .446012437, z: -.027243223, w: .263394952}
        outSlope: {x: -.240533128, y: .446012437, z: -.027243223, w: .263394952}
        tangentMode: 0
      - time: .550000131
        value: {x: .121237367, y: -.443078488, z: .0500457659, w: .886836112}
        inSlope: {x: -.346991897, y: .650448799, z: -.0310761034, w: .372267723}
        outSlope: {x: -.346991897, y: .650448799, z: -.0310761034, w: .372267723}
        tangentMode: 0
      - time: .566666782
        value: {x: .114608049, y: -.430582643, z: .049531851, w: .893873632}
        inSlope: {x: -.443409383, y: .843714714, z: -.0255821515, w: .462493747}
        outSlope: {x: -.443409383, y: .843714714, z: -.0255821515, w: .462493747}
        tangentMode: 0
      - time: .583333433
        value: {x: .10645707, y: -.414954692, z: .0491930284, w: .902252555}
        inSlope: {x: -.529292464, y: 1.02639115, z: -.0097725261, w: .532663941}
        outSlope: {x: -.529292464, y: 1.02639115, z: -.0097725261, w: .532663941}
        tangentMode: 0
      - time: .600000083
        value: {x: .0969649851, y: -.396369636, z: .0492061004, w: .911629081}
        inSlope: {x: -.60397172, y: 1.19827712, z: .0165710375, w: .581934452}
        outSlope: {x: -.60397172, y: 1.19827712, z: .0165710375, w: .581934452}
        tangentMode: 0
      - time: .616666734
        value: {x: .0863246992, y: -.375012159, z: .0497453958, w: .92165035}
        inSlope: {x: -.666685164, y: 1.35849988, z: .0529625006, w: .610001087}
        outSlope: {x: -.666685164, y: 1.35849988, z: .0529625006, w: .610001087}
        tangentMode: 0
      - time: .633333385
        value: {x: .0747421682, y: -.351086348, z: .0509715155, w: .93196243}
        inSlope: {x: -.716676652, y: 1.50563717, z: .0982842743, w: .617108941}
        outSlope: {x: -.716676652, y: 1.50563717, z: .0982842743, w: .617108941}
        tangentMode: 0
      - time: .650000036
        value: {x: .0624355003, y: -.324824303, z: .0530215353, w: .942220628}
        inSlope: {x: -.753301799, y: 1.63783801, z: .150874168, w: .604109168}
        outSlope: {x: -.753301799, y: 1.63783801, z: .150874168, w: .604109168}
        tangentMode: 0
      - time: .666666687
        value: {x: .0496321321, y: -.296491802, z: .0560006499, w: .952099383}
        inSlope: {x: -.776130557, y: 1.75297904, z: .208621293, w: .572441161}
        outSlope: {x: -.776130557, y: 1.75297904, z: .208621293, w: .572441161}
        tangentMode: 0
      - time: .683333337
        value: {x: .0365645066, y: -.266391724, z: .0599755719, w: .961301982}
        inSlope: {x: -.78503406, y: 1.84881616, z: .269079238, w: .524132729}
        outSlope: {x: -.78503406, y: 1.84881616, z: .269079238, w: .524132729}
        tangentMode: 0
      - time: .699999988
        value: {x: .0234643556, y: -.234864652, z: .0649699494, w: .969570458}
        inSlope: {x: -.780250311, y: 1.92312074, z: .329589069, w: .461783856}
        outSlope: {x: -.780250311, y: 1.92312074, z: .329589069, w: .461783856}
        tangentMode: 0
      - time: .716666639
        value: {x: .0105561884, y: -.202287763, z: .0709618628, w: .976694763}
        inSlope: {x: -.762419105, y: 1.97382569, z: .387406349, w: .388484359}
        outSlope: {x: -.762419105, y: 1.97382569, z: .387406349, w: .388484359}
        tangentMode: 0
      - time: .73333329
        value: {x: -.00194959156, y: -.169070527, z: .077883482, w: .982519925}
        inSlope: {x: -.732582986, y: 1.99915862, z: .439826608, w: .307740867}
        outSlope: {x: -.732582986, y: 1.99915862, z: .439826608, w: .307740867}
        tangentMode: 0
      - time: .74999994
        value: {x: -.0138632217, y: -.135649204, z: .0856227353, w: .986952782}
        inSlope: {x: -.692157865, y: 1.99771523, z: .484305948, w: .223353133}
        outSlope: {x: -.692157865, y: 1.99771523, z: .484305948, w: .223353133}
        tangentMode: 0
      - time: .766666591
        value: {x: -.025021499, y: -.102480084, z: .0940269977, w: .989965022}
        inSlope: {x: -.642869115, y: 1.96853364, z: .518564701, w: .13925685}
        outSlope: {x: -.642869115, y: 1.96853364, z: .518564701, w: .13925685}
        tangentMode: 0
      - time: .783333242
        value: {x: -.0352921709, y: -.070031479, z: .102908209, w: .991594672}
        inSlope: {x: -.58665967, y: 1.9111228, z: .540667474, w: .0593913198}
        outSlope: {x: -.58665967, y: 1.9111228, z: .540667474, w: .0593913198}
        tangentMode: 0
      - time: .799999893
        value: {x: -.0445768014, y: -.0387760513, z: .112049229, w: .99194473}
        inSlope: {x: -.525577426, y: 1.82543564, z: .549082458, w: -.0124883773}
        outSlope: {x: -.525577426, y: 1.82543564, z: .549082458, w: -.0124883773}
        tangentMode: 0
      - time: .816666543
        value: {x: -.0528114028, y: -.00918368343, z: .12121094, w: .991178393}
        inSlope: {x: -.461645305, y: 1.71183085, z: .542710781, w: -.0729879886}
        outSlope: {x: -.461645305, y: 1.71183085, z: .542710781, w: -.0729879886}
        tangentMode: 0
      - time: .833333313
        value: {x: -.0599650145, y: .0182851218, z: .130139634, w: .989511788}
        inSlope: {x: -.429214031, y: 1.64811802, z: .535718322, w: -.09999571}
        outSlope: {x: -.429214031, y: 1.64811802, z: .535718322, w: -.09999571}
        tangentMode: 0
      m_PreInfinity: 2
      m_PostInfinity: 2
    path: Scoulder_Joint/Elbow_Joint
  m_CompressedRotationCurves: []
  m_PositionCurves:
  - curve:
      serializedVersion: 2
      m_Curve:
      - time: 0
        value: {x: -.286319524, y: -.00268534524, z: -.0134633398}
        inSlope: {x: Infinity, y: Infinity, z: Infinity}
        outSlope: {x: -0, y: -0, z: -0}
        tangentMode: 0
      - time: .833333313
        value: {x: -.286319524, y: -.00268534524, z: -.0134633398}
        inSlope: {x: 0, y: 0, z: 0}
        outSlope: {x: Infinity, y: Infinity, z: Infinity}
        tangentMode: 0
      m_PreInfinity: 2
      m_PostInfinity: 2
    path: Scoulder_Joint/Elbow_Joint
  m_ScaleCurves: []
  m_FloatCurves: []
  m_PPtrCurves: []
  m_SampleRate: 60
  m_WrapMode: 0
  m_Bounds:
    m_Center: {x: 0, y: 0, z: 0}
    m_Extent: {x: 0, y: 0, z: 0}
  m_ClipBindingConstant:
    genericBindings:
    - path: 4115565648
      attribute: 1
      script: {fileID: 0}
      classID: 4
      customType: 0
      isPPtrCurve: 0
    - path: 4115565648
      attribute: 2
      script: {fileID: 0}
      classID: 4
      customType: 0
      isPPtrCurve: 0
    pptrCurveMapping: []
  m_AnimationClipSettings:
    serializedVersion: 2
    m_StartTime: 0
    m_StopTime: .833333313
    m_OrientationOffsetY: 0
    m_Level: 0
    m_CycleOffset: 0
    m_LoopTime: 1
    m_LoopBlend: 0
    m_LoopBlendOrientation: 0
    m_LoopBlendPositionY: 0
    m_LoopBlendPositionXZ: 0
    m_KeepOriginalOrientation: 0
    m_KeepOriginalPositionY: 1
    m_KeepOriginalPositionXZ: 0
    m_HeightFromFeet: 0
    m_Mirror: 0
  m_EditorCurves:
  - curve:
      serializedVersion: 2
      m_Curve:
      - time: 0
        value: -.286319524
        inSlope: Infinity
        outSlope: -0
        tangentMode: 21
      - time: .833333313
        value: -.286319524
        inSlope: 0
        outSlope: Infinity
        tangentMode: 21
      m_PreInfinity: 2
      m_PostInfinity: 2
    attribute: m_LocalPosition.x
    path: Scoulder_Joint/Elbow_Joint
    classID: 4
    script: {fileID: 0}
  - curve:
      serializedVersion: 2
      m_Curve:
      - time: 0
        value: -.00268534524
        inSlope: Infinity
        outSlope: -0
        tangentMode: 21
      - time: .833333313
        value: -.00268534524
        inSlope: 0
        outSlope: Infinity
        tangentMode: 21
      m_PreInfinity: 2
      m_PostInfinity: 2
    attribute: m_LocalPosition.y
    path: Scoulder_Joint/Elbow_Joint
    classID: 4
    script: {fileID: 0}
  - curve:
      serializedVersion: 2
      m_Curve:
      - time: 0
        value: -.0134633398
        inSlope: Infinity
        outSlope: -0
        tangentMode: 21
      - time: .833333313
        value: -.0134633398
        inSlope: 0
        outSlope: Infinity
        tangentMode: 21
      m_PreInfinity: 2
      m_PostInfinity: 2
    attribute: m_LocalPosition.z
    path: Scoulder_Joint/Elbow_Joint
    classID: 4
    script: {fileID: 0}
  - curve:
      serializedVersion: 2
      m_Curve:
      - time: 0
        value: -.0599650145
        inSlope: 2.89389205
        outSlope: 2.89389205
        tangentMode: 0
      - time: .0166666675
        value: -.0117334761
        inSlope: 2.87006116
        outSlope: 2.87006116
        tangentMode: 0
      - time: .0333333351
        value: .0357036963
        inSlope: 2.80880952
        outSlope: 2.80880952
        tangentMode: 0
      - time: .0500000045
        value: .0818935186
        inSlope: 2.72083592
        outSlope: 2.72083592
        tangentMode: 0
      - time: .0666666701
        value: .126398236
        inSlope: 2.60716939
        outSlope: 2.60716939
        tangentMode: 0
      - time: .0833333358
        value: .168799162
        inSlope: 2.46906757
        outSlope: 2.46906757
        tangentMode: 0
      - time: .100000001
        value: .208700478
        inSlope: 2.30800176
        outSlope: 2.30800176
        tangentMode: 0
      - time: .116666667
        value: .245732546
        inSlope: 2.12563872
        outSlope: 2.12563872
        tangentMode: 0
      - time: .13333334
        value: .279555112
        inSlope: 1.92382479
        outSlope: 1.92382479
        tangentMode: 0
      - time: .150000006
        value: .309860051
        inSlope: 1.7045753
        outSlope: 1.7045753
        tangentMode: 0
      - time: .166666672
        value: .336374283
        inSlope: 1.4700402
        outSlope: 1.4700402
        tangentMode: 0
      - time: .183333337
        value: .358861387
        inSlope: 1.22248304
        outSlope: 1.22248304
        tangentMode: 0
      - time: .200000003
        value: .377123713
        inSlope: .964280128
        outSlope: .964280128
        tangentMode: 0
      - time: .216666669
        value: .391004056
        inSlope: .697874188
        outSlope: .697874188
        tangentMode: 0
      - time: .233333334
        value: .400386184
        inSlope: .425750673
        outSlope: .425750673
        tangentMode: 0
      - time: .25
        value: .405195743
        inSlope: .15043439
        outSlope: .15043439
        tangentMode: 0
      - time: .266666681
        value: .405400664
        inSlope: -.125554994
        outSlope: -.125554994
        tangentMode: 0
      - time: .283333361
        value: .401010573
        inSlope: -.399709582
        outSlope: -.399709582
        tangentMode: 0
      - time: .300000042
        value: .392076999
        inSlope: -.669570923
        outSlope: -.669570923
        tangentMode: 0
      - time: .316666722
        value: .378691524
        inSlope: -.932740092
        outSlope: -.932740092
        tangentMode: 0
      - time: .333333403
        value: .360985637
        inSlope: 2.21721935
        outSlope: 2.21721935
        tangentMode: 0
      - time: .350000083
        value: .4525989
        inSlope: 2.8382988
        outSlope: 2.8382988
        tangentMode: 0
      - time: .366666764
        value: .455595672
        inSlope: -2.07347012
        outSlope: -2.07347012
        tangentMode: 0
      - time: .383333445
        value: .383483171
        inSlope: -5.76774311
        outSlope: -5.76774311
        tangentMode: 0
      - time: .400000125
        value: .263337404
        inSlope: -7.59494925
        outSlope: -7.59494925
        tangentMode: 0
      - time: .416666806
        value: .130317986
        inSlope: -3.99057913
        outSlope: -3.99057913
        tangentMode: 0
      - time: .433333486
        value: .130317986
        inSlope: 0
        outSlope: 0
        tangentMode: 0
      - time: .450000167
        value: .130317986
        inSlope: 0
        outSlope: 0
        tangentMode: 0
      - time: .466666847
        value: .130317986
        inSlope: 0
        outSlope: 0
        tangentMode: 0
      - time: .483333528
        value: .130317986
        inSlope: 0
        outSlope: 0
        tangentMode: 0
      - time: .500000179
        value: .130317986
        inSlope: -.0318856835
        outSlope: -.0318856835
        tangentMode: 0
      - time: .51666683
        value: .129255131
        inSlope: -.124306649
        outSlope: -.124306649
        tangentMode: 0
      - time: .53333348
        value: .126174435
        inSlope: -.240533128
        outSlope: -.240533128
        tangentMode: 0
      - time: .550000131
        value: .121237367
        inSlope: -.346991897
        outSlope: -.346991897
        tangentMode: 0
      - time: .566666782
        value: .114608049
        inSlope: -.443409383
        outSlope: -.443409383
        tangentMode: 0
      - time: .583333433
        value: .10645707
        inSlope: -.529292464
        outSlope: -.529292464
        tangentMode: 0
      - time: .600000083
        value: .0969649851
        inSlope: -.60397172
        outSlope: -.60397172
        tangentMode: 0
      - time: .616666734
        value: .0863246992
        inSlope: -.666685164
        outSlope: -.666685164
        tangentMode: 0
      - time: .633333385
        value: .0747421682
        inSlope: -.716676652
        outSlope: -.716676652
        tangentMode: 0
      - time: .650000036
        value: .0624355003
        inSlope: -.753301799
        outSlope: -.753301799
        tangentMode: 0
      - time: .666666687
        value: .0496321321
        inSlope: -.776130557
        outSlope: -.776130557
        tangentMode: 0
      - time: .683333337
        value: .0365645066
        inSlope: -.78503406
        outSlope: -.78503406
        tangentMode: 0
      - time: .699999988
        value: .0234643556
        inSlope: -.780250311
        outSlope: -.780250311
        tangentMode: 0
      - time: .716666639
        value: .0105561884
        inSlope: -.762419105
        outSlope: -.762419105
        tangentMode: 0
      - time: .73333329
        value: -.00194959156
        inSlope: -.732582986
        outSlope: -.732582986
        tangentMode: 0
      - time: .74999994
        value: -.0138632217
        inSlope: -.692157865
        outSlope: -.692157865
        tangentMode: 0
      - time: .766666591
        value: -.025021499
        inSlope: -.642869115
        outSlope: -.642869115
        tangentMode: 0
      - time: .783333242
        value: -.0352921709
        inSlope: -.58665967
        outSlope: -.58665967
        tangentMode: 0
      - time: .799999893
        value: -.0445768014
        inSlope: -.525577426
        outSlope: -.525577426
        tangentMode: 0
      - time: .816666543
        value: -.0528114028
        inSlope: -.461645305
        outSlope: -.461645305
        tangentMode: 0
      - time: .833333313
        value: -.0599650145
        inSlope: -.429214031
        outSlope: -.429214031
        tangentMode: 0
      m_PreInfinity: 2
      m_PostInfinity: 2
    attribute: m_LocalRotation.x
    path: Scoulder_Joint/Elbow_Joint
    classID: 4
    script: {fileID: 0}
  - curve:
      serializedVersion: 2
      m_Curve:
      - time: 0
        value: .0182851218
        inSlope: 2.71184707
        outSlope: 2.71184707
        tangentMode: 0
      - time: .0166666675
        value: .0634825751
        inSlope: 2.72569299
        outSlope: 2.72569299
        tangentMode: 0
      - time: .0333333351
        value: .109141558
        inSlope: 2.74226904
        outSlope: 2.74226904
        tangentMode: 0
      - time: .0500000045
        value: .154891551
        inSlope: 2.73640394
        outSlope: 2.73640394
        tangentMode: 0
      - time: .0666666701
        value: .200355023
        inSlope: 2.70777559
        outSlope: 2.70777559
        tangentMode: 0
      - time: .0833333358
        value: .24515073
        inSlope: 2.65627766
        outSlope: 2.65627766
        tangentMode: 0
      - time: .100000001
        value: .288897604
        inSlope: 2.58202362
        outSlope: 2.58202362
        tangentMode: 0
      - time: .116666667
        value: .331218183
        inSlope: 2.48533726
        outSlope: 2.48533726
        tangentMode: 0
      - time: .13333334
        value: .371742189
        inSlope: 2.36676383
        outSlope: 2.36676383
        tangentMode: 0
      - time: .150000006
        value: .410110325
        inSlope: 2.22706795
        outSlope: 2.22706795
        tangentMode: 0
      - time: .166666672
        value: .445977777
        inSlope: 2.06721878
        outSlope: 2.06721878
        tangentMode: 0
      - time: .183333337
        value: .479017615
        inSlope: 1.88839412
        outSlope: 1.88839412
        tangentMode: 0
      - time: .200000003
        value: .508924246
        inSlope: 1.69195902
        outSlope: 1.69195902
        tangentMode: 0
      - time: .216666669
        value: .535416245
        inSlope: 1.47947264
        outSlope: 1.47947264
        tangentMode: 0
      - time: .233333334
        value: .558239996
        inSlope: 1.25266504
        outSlope: 1.25266504
        tangentMode: 0
      - time: .25
        value: .577171743
        inSlope: 1.0134151
        outSlope: 1.0134151
        tangentMode: 0
      - time: .266666681
        value: .592020512
        inSlope: .763747692
        outSlope: .763747692
        tangentMode: 0
      - time: .283333361
        value: .602630019
        inSlope: .505808771
        outSlope: .505808771
        tangentMode: 0
      - time: .300000042
        value: .608880818
        inSlope: .241849214
        outSlope: .241849214
        tangentMode: 0
      - time: .316666722
        value: .610691667
        inSlope: -.0257938877
        outSlope: -.0257938877
        tangentMode: 0
      - time: .333333403
        value: .608021021
        inSlope: -2.41012025
        outSlope: -2.41012025
        tangentMode: 0
      - time: .350000083
        value: .530354261
        inSlope: -7.41837168
        outSlope: -7.41837168
        tangentMode: 0
      - time: .366666764
        value: .360741764
        inSlope: -12.4125938
        outSlope: -12.4125938
        tangentMode: 0
      - time: .383333445
        value: .116600797
        inSlope: -15.9353104
        outSlope: -15.9353104
        tangentMode: 0
      - time: .400000125
        value: -.170435712
        inSlope: -17.2949104
        outSlope: -17.2949104
        tangentMode: 0
      - time: .416666806
        value: -.459896743
        inSlope: -8.68382359
        outSlope: -8.68382359
        tangentMode: 0
      - time: .433333486
        value: -.459896743
        inSlope: 0
        outSlope: 0
        tangentMode: 0
      - time: .450000167
        value: -.459896743
        inSlope: 0
        outSlope: 0
        tangentMode: 0
      - time: .466666847
        value: -.459896743
        inSlope: 0
        outSlope: 0
        tangentMode: 0
      - time: .483333528
        value: -.459896743
        inSlope: 0
        outSlope: 0
        tangentMode: 0
      - time: .500000179
        value: -.459896743
        inSlope: .0585356914
        outSlope: .0585356914
        tangentMode: 0
      - time: .51666683
        value: -.457945555
        inSlope: .228975043
        outSlope: .228975043
        tangentMode: 0
      - time: .53333348
        value: -.452264249
        inSlope: .446012437
        outSlope: .446012437
        tangentMode: 0
      - time: .550000131
        value: -.443078488
        inSlope: .650448799
        outSlope: .650448799
        tangentMode: 0
      - time: .566666782
        value: -.430582643
        inSlope: .843714714
        outSlope: .843714714
        tangentMode: 0
      - time: .583333433
        value: -.414954692
        inSlope: 1.02639115
        outSlope: 1.02639115
        tangentMode: 0
      - time: .600000083
        value: -.396369636
        inSlope: 1.19827712
        outSlope: 1.19827712
        tangentMode: 0
      - time: .616666734
        value: -.375012159
        inSlope: 1.35849988
        outSlope: 1.35849988
        tangentMode: 0
      - time: .633333385
        value: -.351086348
        inSlope: 1.50563717
        outSlope: 1.50563717
        tangentMode: 0
      - time: .650000036
        value: -.324824303
        inSlope: 1.63783801
        outSlope: 1.63783801
        tangentMode: 0
      - time: .666666687
        value: -.296491802
        inSlope: 1.75297904
        outSlope: 1.75297904
        tangentMode: 0
      - time: .683333337
        value: -.266391724
        inSlope: 1.84881616
        outSlope: 1.84881616
        tangentMode: 0
      - time: .699999988
        value: -.234864652
        inSlope: 1.92312074
        outSlope: 1.92312074
        tangentMode: 0
      - time: .716666639
        value: -.202287763
        inSlope: 1.97382569
        outSlope: 1.97382569
        tangentMode: 0
      - time: .73333329
        value: -.169070527
        inSlope: 1.99915862
        outSlope: 1.99915862
        tangentMode: 0
      - time: .74999994
        value: -.135649204
        inSlope: 1.99771523
        outSlope: 1.99771523
        tangentMode: 0
      - time: .766666591
        value: -.102480084
        inSlope: 1.96853364
        outSlope: 1.96853364
        tangentMode: 0
      - time: .783333242
        value: -.070031479
        inSlope: 1.9111228
        outSlope: 1.9111228
        tangentMode: 0
      - time: .799999893
        value: -.0387760513
        inSlope: 1.82543564
        outSlope: 1.82543564
        tangentMode: 0
      - time: .816666543
        value: -.00918368343
        inSlope: 1.71183085
        outSlope: 1.71183085
        tangentMode: 0
      - time: .833333313
        value: .0182851218
        inSlope: 1.64811802
        outSlope: 1.64811802
        tangentMode: 0
      m_PreInfinity: 2
      m_PostInfinity: 2
    attribute: m_LocalRotation.y
    path: Scoulder_Joint/Elbow_Joint
    classID: 4
    script: {fileID: 0}
  - curve:
      serializedVersion: 2
      m_Curve:
      - time: 0
        value: .130139634
        inSlope: -.353997022
        outSlope: -.353997022
        tangentMode: 0
      - time: .0166666675
        value: .124239683
        inSlope: -.498672485
        outSlope: -.498672485
        tangentMode: 0
      - time: .0333333351
        value: .113517217
        inSlope: -.784535527
        outSlope: -.784535527
        tangentMode: 0
      - time: .0500000045
        value: .0980884954
        inSlope: -1.0621599
        outSlope: -1.0621599
        tangentMode: 0
      - time: .0666666701
        value: .078111887
        inSlope: -1.32907569
        outSlope: -1.32907569
        tangentMode: 0
      - time: .0833333358
        value: .053785976
        inSlope: -1.58293533
        outSlope: -1.58293533
        tangentMode: 0
      - time: .100000001
        value: .0253473781
        inSlope: -1.82153308
        outSlope: -1.82153308
        tangentMode: 0
      - time: .116666667
        value: -.00693178922
        inSlope: -2.04282451
        outSlope: -2.04282451
        tangentMode: 0
      - time: .13333334
        value: -.0427467823
        inSlope: -2.24494362
        outSlope: -2.24494362
        tangentMode: 0
      - time: .150000006
        value: -.0817632526
        inSlope: -2.42622042
        outSlope: -2.42622042
        tangentMode: 0
      - time: .166666672
        value: -.123620786
        inSlope: -2.58519363
        outSlope: -2.58519363
        tangentMode: 0
      - time: .183333337
        value: -.16793637
        inSlope: -2.72061968
        outSlope: -2.72061968
        tangentMode: 0
      - time: .200000003
        value: -.214308098
        inSlope: -2.83148527
        outSlope: -2.83148527
        tangentMode: 0
      - time: .216666669
        value: -.262319207
        inSlope: -2.91701841
        outSlope: -2.91701841
        tangentMode: 0
      - time: .233333334
        value: -.311542034
        inSlope: -2.97668362
        outSlope: -2.97668362
        tangentMode: 0
      - time: .25
        value: -.361541986
        inSlope: -3.01019096
        outSlope: -3.01019096
        tangentMode: 0
      - time: .266666681
        value: -.411881775
        inSlope: -3.0174942
        outSlope: -3.0174942
        tangentMode: 0
      - time: .283333361
        value: -.462125212
        inSlope: -2.99880099
        outSlope: -2.99880099
        tangentMode: 0
      - time: .300000042
        value: -.511841893
        inSlope: -2.95454288
        outSlope: -2.95454288
        tangentMode: 0
      - time: .316666722
        value: -.560610056
        inSlope: -2.88535714
        outSlope: -2.88535714
        tangentMode: 0
      - time: .333333403
        value: -.608020544
        inSlope: 4.54305744
        outSlope: 4.54305744
        tangentMode: 0
      - time: .350000083
        value: -.409174681
        inSlope: 11.8439445
        outSlope: 11.8439445
        tangentMode: 0
      - time: .366666764
        value: -.213222072
        inSlope: 10.591527
        outSlope: 10.591527
        tangentMode: 0
      - time: .383333445
        value: -.0561234951
        inSlope: 7.47378635
        outSlope: 7.47378635
        tangentMode: 0
      - time: .400000125
        value: .0359043293
        inSlope: 3.21663928
        outSlope: 3.21663928
        tangentMode: 0
      - time: .416666806
        value: .0510978997
        inSlope: .455806732
        outSlope: .455806732
        tangentMode: 0
      - time: .433333486
        value: .0510978997
        inSlope: 0
        outSlope: 0
        tangentMode: 0
      - time: .450000167
        value: .0510978997
        inSlope: 0
        outSlope: 0
        tangentMode: 0
      - time: .466666847
        value: .0510978997
        inSlope: 0
        outSlope: 0
        tangentMode: 0
      - time: .483333528
        value: .0510978997
        inSlope: 0
        outSlope: 0
        tangentMode: 0
      - time: .500000179
        value: .0510978997
        inSlope: -.0043208194
        outSlope: -.0043208194
        tangentMode: 0
      - time: .51666683
        value: .0509538725
        inSlope: -.0159054026
        outSlope: -.0159054026
        tangentMode: 0
      - time: .53333348
        value: .0505677201
        inSlope: -.027243223
        outSlope: -.027243223
        tangentMode: 0
      - time: .550000131
        value: .0500457659
        inSlope: -.0310761034
        outSlope: -.0310761034
        tangentMode: 0
      - time: .566666782
        value: .049531851
        inSlope: -.0255821515
        outSlope: -.0255821515
        tangentMode: 0
      - time: .583333433
        value: .0491930284
        inSlope: -.0097725261
        outSlope: -.0097725261
        tangentMode: 0
      - time: .600000083
        value: .0492061004
        inSlope: .0165710375
        outSlope: .0165710375
        tangentMode: 0
      - time: .616666734
        value: .0497453958
        inSlope: .0529625006
        outSlope: .0529625006
        tangentMode: 0
      - time: .633333385
        value: .0509715155
        inSlope: .0982842743
        outSlope: .0982842743
        tangentMode: 0
      - time: .650000036
        value: .0530215353
        inSlope: .150874168
        outSlope: .150874168
        tangentMode: 0
      - time: .666666687
        value: .0560006499
        inSlope: .208621293
        outSlope: .208621293
        tangentMode: 0
      - time: .683333337
        value: .0599755719
        inSlope: .269079238
        outSlope: .269079238
        tangentMode: 0
      - time: .699999988
        value: .0649699494
        inSlope: .329589069
        outSlope: .329589069
        tangentMode: 0
      - time: .716666639
        value: .0709618628
        inSlope: .387406349
        outSlope: .387406349
        tangentMode: 0
      - time: .73333329
        value: .077883482
        inSlope: .439826608
        outSlope: .439826608
        tangentMode: 0
      - time: .74999994
        value: .0856227353
        inSlope: .484305948
        outSlope: .484305948
        tangentMode: 0
      - time: .766666591
        value: .0940269977
        inSlope: .518564701
        outSlope: .518564701
        tangentMode: 0
      - time: .783333242
        value: .102908209
        inSlope: .540667474
        outSlope: .540667474
        tangentMode: 0
      - time: .799999893
        value: .112049229
        inSlope: .549082458
        outSlope: .549082458
        tangentMode: 0
      - time: .816666543
        value: .12121094
        inSlope: .542710781
        outSlope: .542710781
        tangentMode: 0
      - time: .833333313
        value: .130139634
        inSlope: .535718322
        outSlope: .535718322
        tangentMode: 0
      m_PreInfinity: 2
      m_PostInfinity: 2
    attribute: m_LocalRotation.z
    path: Scoulder_Joint/Elbow_Joint
    classID: 4
    script: {fileID: 0}
  - curve:
      serializedVersion: 2
      m_Curve:
      - time: 0
        value: .989511788
        inSlope: .0382840596
        outSlope: .0382840596
        tangentMode: 0
      - time: .0166666675
        value: .990149856
        inSlope: -.0790268108
        outSlope: -.0790268108
        tangentMode: 0
      - time: .0333333351
        value: .986877561
        inSlope: -.315506428
        outSlope: -.315506428
        tangentMode: 0
      - time: .0500000045
        value: .979632974
        inSlope: -.554614663
        outSlope: -.554614663
        tangentMode: 0
      - time: .0666666701
        value: .968390405
        inSlope: -.794175327
        outSlope: -.794175327
        tangentMode: 0
      - time: .0833333358
        value: .953160465
        inSlope: -1.03197467
        outSlope: -1.03197467
        tangentMode: 0
      - time: .100000001
        value: .933991253
        inSlope: -1.26578641
        outSlope: -1.26578641
        tangentMode: 0
      - time: .116666667
        value: .910967588
        inSlope: -1.49340189
        outSlope: -1.49340189
        tangentMode: 0
      - time: .13333334
        value: .884211183
        inSlope: -1.71262777
        outSlope: -1.71262777
        tangentMode: 0
      - time: .150000006
        value: .853879988
        inSlope: -1.92132187
        outSlope: -1.92132187
        tangentMode: 0
      - time: .166666672
        value: .820167124
        inSlope: -2.11741471
        outSlope: -2.11741471
        tangentMode: 0
      - time: .183333337
        value: .783299506
        inSlope: -2.29893231
        outSlope: -2.29893231
        tangentMode: 0
      - time: .200000003
        value: .743536055
        inSlope: -2.46400261
        outSlope: -2.46400261
        tangentMode: 0
      - time: .216666669
        value: .701166093
        inSlope: -2.6108911
        outSlope: -2.6108911
        tangentMode: 0
      - time: .233333334
        value: .65650636
        inSlope: -2.73802066
        outSlope: -2.73802066
        tangentMode: 0
      - time: .25
        value: .609898746
        inSlope: -2.84395933
        outSlope: -2.84395933
        tangentMode: 0
      - time: .266666681
        value: .561707675
        inSlope: -2.92747688
        outSlope: -2.92747688
        tangentMode: 0
      - time: .283333361
        value: .512316108
        inSlope: -2.987535
        outSlope: -2.987535
        tangentMode: 0
      - time: .300000042
        value: .462123096
        inSlope: -3.02329588
        outSlope: -3.02329588
        tangentMode: 0
      - time: .316666722
        value: .411539495
        inSlope: -3.03411222
        outSlope: -3.03411222
        tangentMode: 0
      - time: .333333403
        value: .360985935
        inSlope: 5.31193209
        outSlope: 5.31193209
        tangentMode: 0
      - time: .350000083
        value: .588604033
        inSlope: 12.7320538
        outSlope: 12.7320538
        tangentMode: 0
      - time: .366666764
        value: .785388052
        inSlope: 9.77498245
        outSlope: 9.77498245
        tangentMode: 0
      - time: .383333445
        value: .914437056
        inSlope: 4.90384817
        outSlope: 4.90384817
        tangentMode: 0
      - time: .400000125
        value: .948849797
        inSlope: -1.12700784
        outSlope: -1.12700784
        tangentMode: 0
      - time: .416666806
        value: .876870096
        inSlope: -2.15938926
        outSlope: -2.15938926
        tangentMode: 0
      - time: .433333486
        value: .876870096
        inSlope: 0
        outSlope: 0
        tangentMode: 0
      - time: .450000167
        value: .876870096
        inSlope: 0
        outSlope: 0
        tangentMode: 0
      - time: .466666847
        value: .876870096
        inSlope: 0
        outSlope: 0
        tangentMode: 0
      - time: .483333528
        value: .876870096
        inSlope: 0
        outSlope: 0
        tangentMode: 0
      - time: .500000179
        value: .876870096
        inSlope: .0355857946
        outSlope: .0355857946
        tangentMode: 0
      - time: .51666683
        value: .878056288
        inSlope: .137838855
        outSlope: .137838855
        tangentMode: 0
      - time: .53333348
        value: .88146472
        inSlope: .263394952
        outSlope: .263394952
        tangentMode: 0
      - time: .550000131
        value: .886836112
        inSlope: .372267723
        outSlope: .372267723
        tangentMode: 0
      - time: .566666782
        value: .893873632
        inSlope: .462493747
        outSlope: .462493747
        tangentMode: 0
      - time: .583333433
        value: .902252555
        inSlope: .532663941
        outSlope: .532663941
        tangentMode: 0
      - time: .600000083
        value: .911629081
        inSlope: .581934452
        outSlope: .581934452
        tangentMode: 0
      - time: .616666734
        value: .92165035
        inSlope: .610001087
        outSlope: .610001087
        tangentMode: 0
      - time: .633333385
        value: .93196243
        inSlope: .617108941
        outSlope: .617108941
        tangentMode: 0
      - time: .650000036
        value: .942220628
        inSlope: .604109168
        outSlope: .604109168
        tangentMode: 0
      - time: .666666687
        value: .952099383
        inSlope: .572441161
        outSlope: .572441161
        tangentMode: 0
      - time: .683333337
        value: .961301982
        inSlope: .524132729
        outSlope: .524132729
        tangentMode: 0
      - time: .699999988
        value: .969570458
        inSlope: .461783856
        outSlope: .461783856
        tangentMode: 0
      - time: .716666639
        value: .976694763
        inSlope: .388484359
        outSlope: .388484359
        tangentMode: 0
      - time: .73333329
        value: .982519925
        inSlope: .307740867
        outSlope: .307740867
        tangentMode: 0
      - time: .74999994
        value: .986952782
        inSlope: .223353133
        outSlope: .223353133
        tangentMode: 0
      - time: .766666591
        value: .989965022
        inSlope: .13925685
        outSlope: .13925685
        tangentMode: 0
      - time: .783333242
        value: .991594672
        inSlope: .0593913198
        outSlope: .0593913198
        tangentMode: 0
      - time: .799999893
        value: .99194473
        inSlope: -.0124883773
        outSlope: -.0124883773
        tangentMode: 0
      - time: .816666543
        value: .991178393
        inSlope: -.0729879886
        outSlope: -.0729879886
        tangentMode: 0
      - time: .833333313
        value: .989511788
        inSlope: -.09999571
        outSlope: -.09999571
        tangentMode: 0
      m_PreInfinity: 2
      m_PostInfinity: 2
    attribute: m_LocalRotation.w
    path: Scoulder_Joint/Elbow_Joint
    classID: 4
    script: {fileID: 0}
  m_EulerEditorCurves:
  - curve:
      serializedVersion: 2
      m_Curve:
      - time: 0
        value: -7.09017944
        inSlope: Infinity
        outSlope: 291.270538
        tangentMode: 21
      - time: .333333343
        value: 90
        inSlope: 291.270538
        outSlope: -888.067383
        tangentMode: 21
      - time: .416666657
        value: 15.9944
        inSlope: -888.067383
        outSlope: 0
        tangentMode: 5
      - time: .5
        value: 15.9944
        inSlope: 0
        outSlope: 0
        tangentMode: 5
      - time: .833333313
        value: -7.09017944
        inSlope: -69.253746
        outSlope: 291.270538
        tangentMode: 21
      m_PreInfinity: 2
      m_PostInfinity: 2
    attribute: localEulerAnglesBaked.x
    path: Scoulder_Joint/Elbow_Joint
    classID: 4
    script: {fileID: 0}
  - curve:
      serializedVersion: 2
      m_Curve:
      - time: 0
        value: 1.18826294
        inSlope: Infinity
        outSlope: 352.248322
        tangentMode: 21
      - time: .333333343
        value: 118.60437
        inSlope: 352.248322
        outSlope: -2090.51538
        tangentMode: 21
      - time: .416666657
        value: -55.6051941
        inSlope: -2090.51538
        outSlope: 0
        tangentMode: 5
      - time: .5
        value: -55.6051941
        inSlope: 0
        outSlope: 0
        tangentMode: 5
      - time: .833333313
        value: 1.18826294
        inSlope: 170.380386
        outSlope: 352.248322
        tangentMode: 21
      m_PreInfinity: 2
      m_PostInfinity: 2
    attribute: localEulerAnglesBaked.y
    path: Scoulder_Joint/Elbow_Joint
    classID: 4
    script: {fileID: 0}
  - curve:
      serializedVersion: 2
      m_Curve:
      - time: 0
        value: 14.9113464
        inSlope: Infinity
        outSlope: -44.7340393
        tangentMode: 21
      - time: .333333343
        value: 0
        inSlope: -44.7340393
        outSlope: -21.6417904
        tangentMode: 21
      - time: .416666657
        value: -1.80348206
        inSlope: -21.6417904
        outSlope: 0
        tangentMode: 5
      - time: .5
        value: -1.80348206
        inSlope: 0
        outSlope: 0
        tangentMode: 5
      - time: .833333313
        value: 14.9113464
        inSlope: 50.1444893
        outSlope: -44.7340393
        tangentMode: 21
      m_PreInfinity: 2
      m_PostInfinity: 2
    attribute: localEulerAnglesBaked.z
    path: Scoulder_Joint/Elbow_Joint
    classID: 4
    script: {fileID: 0}
  m_HasGenericRootTransform: 0
  m_HasMotionFloatCurves: 0
  m_GenerateMotionCurves: 0
  m_Events: []
