%YAML 1.1
%TAG !u! tag:unity3d.com,2011:
--- !u!74 &7400000
AnimationClip:
  m_ObjectHideFlags: 0
  m_PrefabParentObject: {fileID: 0}
  m_PrefabInternal: {fileID: 0}
  m_Name: Arm Use
  serializedVersion: 6
  m_Legacy: 0
  m_Compressed: 0
  m_UseHighQualityCurve: 1
  m_RotationCurves: []
  m_CompressedRotationCurves: []
  m_PositionCurves:
  - curve:
      serializedVersion: 2
      m_Curve:
      - time: 0
        value: {x: 0, y: -.119000003, z: .832000017}
        inSlope: {x: -0, y: 0, z: -.509142876}
        outSlope: {x: -0, y: 0, z: -.509142876}
        tangentMode: 0
      - time: .583333313
        value: {x: -0, y: -.119000003, z: .535000026}
        inSlope: {x: 0, y: 0, z: .0424285233}
        outSlope: {x: 0, y: 0, z: .0424285233}
        tangentMode: 0
      - time: 1.08333337
        value: {x: 0, y: -.119000003, z: .832000017}
        inSlope: {x: 0, y: 0, z: .593999922}
        outSlope: {x: 0, y: 0, z: .593999922}
        tangentMode: 0
      m_PreInfinity: 2
      m_PostInfinity: 2
    path: R_Shoulder
  m_ScaleCurves: []
  m_FloatCurves: []
  m_PPtrCurves: []
  m_SampleRate: 60
  m_WrapMode: 0
  m_Bounds:
    m_Center: {x: 0, y: 0, z: 0}
    m_Extent: {x: 0, y: 0, z: 0}
  m_ClipBindingConstant:
    genericBindings:
    - path: 3226415238
      attribute: 1
      script: {fileID: 0}
      classID: 4
      customType: 0
      isPPtrCurve: 0
    pptrCurveMapping: []
  m_AnimationClipSettings:
    serializedVersion: 2
    m_StartTime: 0
    m_StopTime: 1.08333337
    m_OrientationOffsetY: 0
    m_Level: 0
    m_CycleOffset: 0
    m_LoopTime: 0
    m_LoopBlend: 0
    m_LoopBlendOrientation: 0
    m_LoopBlendPositionY: 0
    m_LoopBlendPositionXZ: 0
    m_KeepOriginalOrientation: 0
    m_KeepOriginalPositionY: 1
    m_KeepOriginalPositionXZ: 0
    m_HeightFromFeet: 0
    m_Mirror: 0
  m_EditorCurves:
  - curve:
      serializedVersion: 2
      m_Curve:
      - time: 0
        value: 0
        inSlope: -0
        outSlope: -0
        tangentMode: 10
      - time: .583333313
        value: -0
        inSlope: 0
        outSlope: 0
        tangentMode: 10
      - time: 1.08333337
        value: 0
        inSlope: 0
        outSlope: 0
        tangentMode: 10
      m_PreInfinity: 2
      m_PostInfinity: 2
    attribute: m_LocalPosition.x
    path: R_Shoulder
    classID: 4
    script: {fileID: 0}
  - curve:
      serializedVersion: 2
      m_Curve:
      - time: 0
        value: -.119000003
        inSlope: 0
        outSlope: 0
        tangentMode: 10
      - time: .583333313
        value: -.119000003
        inSlope: 0
        outSlope: 0
        tangentMode: 10
      - time: 1.08333337
        value: -.119000003
        inSlope: 0
        outSlope: 0
        tangentMode: 10
      m_PreInfinity: 2
      m_PostInfinity: 2
    attribute: m_LocalPosition.y
    path: R_Shoulder
    classID: 4
    script: {fileID: 0}
  - curve:
      serializedVersion: 2
      m_Curve:
      - time: 0
        value: .832000017
        inSlope: -.509142876
        outSlope: -.509142876
        tangentMode: 10
      - time: .583333313
        value: .535000026
        inSlope: .0424285233
        outSlope: .0424285233
        tangentMode: 10
      - time: 1.08333337
        value: .832000017
        inSlope: .593999922
        outSlope: .593999922
        tangentMode: 10
      m_PreInfinity: 2
      m_PostInfinity: 2
    attribute: m_LocalPosition.z
    path: R_Shoulder
    classID: 4
    script: {fileID: 0}
  m_EulerEditorCurves: []
  m_HasGenericRootTransform: 0
  m_HasMotionFloatCurves: 0
  m_GenerateMotionCurves: 0
  m_Events: []
