%YAML 1.1
%TAG !u! tag:unity3d.com,2011:
--- !u!29 &1
SceneSettings:
  m_ObjectHideFlags: 0
  m_PVSData: 
  m_PVSObjectsArray: []
  m_PVSPortalsArray: []
  m_OcclusionBakeSettings:
    smallestOccluder: 5
    smallestHole: .25
    backfaceThreshold: 100
--- !u!104 &2
RenderSettings:
  m_ObjectHideFlags: 0
  serializedVersion: 6
  m_Fog: 0
  m_FogColor: {r: .5, g: .5, b: .5, a: 1}
  m_FogMode: 3
  m_FogDensity: .00999999978
  m_LinearFogStart: 0
  m_LinearFogEnd: 300
  m_AmbientSkyColor: {r: .211999997, g: .226999998, b: .259000003, a: 1}
  m_AmbientEquatorColor: {r: .114, g: .125, b: .133000001, a: 1}
  m_AmbientGroundColor: {r: .0469999984, g: .0430000015, b: .0350000001, a: 1}
  m_AmbientIntensity: 1
  m_AmbientMode: 0
  m_SkyboxMaterial: {fileID: 10304, guid: 0000000000000000f000000000000000, type: 0}
  m_HaloStrength: .5
  m_FlareStrength: 1
  m_FlareFadeSpeed: 3
  m_HaloTexture: {fileID: 0}
  m_SpotCookie: {fileID: 10001, guid: 0000000000000000e000000000000000, type: 0}
  m_DefaultReflectionMode: 0
  m_DefaultReflectionResolution: 128
  m_ReflectionBounces: 1
  m_ReflectionIntensity: 1
  m_CustomReflection: {fileID: 0}
  m_Sun: {fileID: 0}
--- !u!127 &3
LevelGameManager:
  m_ObjectHideFlags: 0
--- !u!157 &4
LightmapSettings:
  m_ObjectHideFlags: 0
  serializedVersion: 5
  m_GIWorkflowMode: 0
  m_LightmapsMode: 1
  m_GISettings:
    serializedVersion: 2
    m_BounceScale: 1
    m_IndirectOutputScale: 1
    m_AlbedoBoost: 1
    m_TemporalCoherenceThreshold: 1
    m_EnvironmentLightingMode: 0
    m_EnableBakedLightmaps: 1
    m_EnableRealtimeLightmaps: 1
  m_LightmapEditorSettings:
    serializedVersion: 3
    m_Resolution: 2
    m_BakeResolution: 40
    m_TextureWidth: 1024
    m_TextureHeight: 1024
    m_AOMaxDistance: 1
    m_Padding: 2
    m_CompAOExponent: 0
    m_LightmapParameters: {fileID: 0}
    m_TextureCompression: 1
    m_FinalGather: 0
    m_FinalGatherRayCount: 1024
  m_LightmapSnapshot: {fileID: 0}
  m_RuntimeCPUUsage: 25
--- !u!196 &5
NavMeshSettings:
  serializedVersion: 2
  m_ObjectHideFlags: 0
  m_BuildSettings:
    serializedVersion: 2
    agentRadius: .5
    agentHeight: 2
    agentSlope: 45
    agentClimb: .400000006
    ledgeDropHeight: 0
    maxJumpAcrossDistance: 0
    accuratePlacement: 0
    minRegionArea: 2
    cellSize: .166666672
    manualCellSize: 0
  m_NavMeshData: {fileID: 0}
--- !u!1001 &241706859
Prefab:
  m_ObjectHideFlags: 0
  serializedVersion: 2
  m_Modification:
    m_TransformParent: {fileID: 0}
    m_Modifications:
    - target: {fileID: 447592, guid: 2af97173a917b2448a78c4670d3ea273, type: 2}
      propertyPath: m_LocalPosition.x
      value: -.45709905
      objectReference: {fileID: 0}
    - target: {fileID: 447592, guid: 2af97173a917b2448a78c4670d3ea273, type: 2}
      propertyPath: m_LocalPosition.y
      value: 1.26111317
      objectReference: {fileID: 0}
    - target: {fileID: 447592, guid: 2af97173a917b2448a78c4670d3ea273, type: 2}
      propertyPath: m_LocalPosition.z
      value: 0
      objectReference: {fileID: 0}
    - target: {fileID: 447592, guid: 2af97173a917b2448a78c4670d3ea273, type: 2}
      propertyPath: m_LocalRotation.x
      value: 0
      objectReference: {fileID: 0}
    - target: {fileID: 447592, guid: 2af97173a917b2448a78c4670d3ea273, type: 2}
      propertyPath: m_LocalRotation.y
      value: 0
      objectReference: {fileID: 0}
    - target: {fileID: 447592, guid: 2af97173a917b2448a78c4670d3ea273, type: 2}
      propertyPath: m_LocalRotation.z
      value: 0
      objectReference: {fileID: 0}
    - target: {fileID: 447592, guid: 2af97173a917b2448a78c4670d3ea273, type: 2}
      propertyPath: m_LocalRotation.w
      value: 1
      objectReference: {fileID: 0}
    - target: {fileID: 447592, guid: 2af97173a917b2448a78c4670d3ea273, type: 2}
      propertyPath: m_RootOrder
      value: 2
      objectReference: {fileID: 0}
    - target: {fileID: 12007440, guid: 2af97173a917b2448a78c4670d3ea273, type: 2}
      propertyPath: m_Materials.Array.data[0]
      value: 
      objectReference: {fileID: 2100000, guid: 89cc3f1cea6393c4c942645962784b24, type: 2}
    - target: {fileID: 122496, guid: 2af97173a917b2448a78c4670d3ea273, type: 2}
      propertyPath: m_IsActive
      value: 1
      objectReference: {fileID: 0}
    - target: {fileID: 137356, guid: 2af97173a917b2448a78c4670d3ea273, type: 2}
      propertyPath: m_IsActive
      value: 1
      objectReference: {fileID: 0}
    m_RemovedComponents: []
  m_ParentPrefab: {fileID: 100100000, guid: 2af97173a917b2448a78c4670d3ea273, type: 2}
  m_IsPrefabParent: 0
--- !u!1001 &456134641
Prefab:
  m_ObjectHideFlags: 0
  serializedVersion: 2
  m_Modification:
    m_TransformParent: {fileID: 0}
    m_Modifications:
    - target: {fileID: 445120, guid: 174261b23d5a8554a91be83be13a1431, type: 2}
      propertyPath: m_LocalPosition.x
      value: -.519999981
      objectReference: {fileID: 0}
    - target: {fileID: 445120, guid: 174261b23d5a8554a91be83be13a1431, type: 2}
      propertyPath: m_LocalPosition.y
      value: -.189999998
      objectReference: {fileID: 0}
    - target: {fileID: 445120, guid: 174261b23d5a8554a91be83be13a1431, type: 2}
      propertyPath: m_LocalPosition.z
      value: 0
      objectReference: {fileID: 0}
    - target: {fileID: 445120, guid: 174261b23d5a8554a91be83be13a1431, type: 2}
      propertyPath: m_LocalRotation.x
      value: 0
      objectReference: {fileID: 0}
    - target: {fileID: 445120, guid: 174261b23d5a8554a91be83be13a1431, type: 2}
      propertyPath: m_LocalRotation.y
      value: 0
      objectReference: {fileID: 0}
    - target: {fileID: 445120, guid: 174261b23d5a8554a91be83be13a1431, type: 2}
      propertyPath: m_LocalRotation.z
      value: 0
      objectReference: {fileID: 0}
    - target: {fileID: 445120, guid: 174261b23d5a8554a91be83be13a1431, type: 2}
      propertyPath: m_LocalRotation.w
      value: 1
      objectReference: {fileID: 0}
    - target: {fileID: 445120, guid: 174261b23d5a8554a91be83be13a1431, type: 2}
      propertyPath: m_RootOrder
      value: 6
      objectReference: {fileID: 0}
    - target: {fileID: 175244, guid: 174261b23d5a8554a91be83be13a1431, type: 2}
      propertyPath: m_IsActive
      value: 0
      objectReference: {fileID: 0}
    m_RemovedComponents: []
  m_ParentPrefab: {fileID: 100100000, guid: 174261b23d5a8554a91be83be13a1431, type: 2}
  m_IsPrefabParent: 0
--- !u!1001 &640895308
Prefab:
  m_ObjectHideFlags: 0
  serializedVersion: 2
  m_Modification:
    m_TransformParent: {fileID: 0}
    m_Modifications:
    - target: {fileID: 478368, guid: 1cbb7f8ec633e4444accdab378388faf, type: 2}
      propertyPath: m_LocalPosition.x
      value: -.942788422
      objectReference: {fileID: 0}
    - target: {fileID: 478368, guid: 1cbb7f8ec633e4444accdab378388faf, type: 2}
      propertyPath: m_LocalPosition.y
      value: .121883385
      objectReference: {fileID: 0}
    - target: {fileID: 478368, guid: 1cbb7f8ec633e4444accdab378388faf, type: 2}
      propertyPath: m_LocalPosition.z
      value: 0
      objectReference: {fileID: 0}
    - target: {fileID: 478368, guid: 1cbb7f8ec633e4444accdab378388faf, type: 2}
      propertyPath: m_LocalRotation.x
      value: 0
      objectReference: {fileID: 0}
    - target: {fileID: 478368, guid: 1cbb7f8ec633e4444accdab378388faf, type: 2}
      propertyPath: m_LocalRotation.y
      value: 0
      objectReference: {fileID: 0}
    - target: {fileID: 478368, guid: 1cbb7f8ec633e4444accdab378388faf, type: 2}
      propertyPath: m_LocalRotation.z
      value: 0
      objectReference: {fileID: 0}
    - target: {fileID: 478368, guid: 1cbb7f8ec633e4444accdab378388faf, type: 2}
      propertyPath: m_LocalRotation.w
      value: 1
      objectReference: {fileID: 0}
    - target: {fileID: 478368, guid: 1cbb7f8ec633e4444accdab378388faf, type: 2}
      propertyPath: m_RootOrder
      value: 7
      objectReference: {fileID: 0}
    - target: {fileID: 184136, guid: 1cbb7f8ec633e4444accdab378388faf, type: 2}
      propertyPath: m_IsActive
      value: 0
      objectReference: {fileID: 0}
    m_RemovedComponents: []
  m_ParentPrefab: {fileID: 100100000, guid: 1cbb7f8ec633e4444accdab378388faf, type: 2}
  m_IsPrefabParent: 0
--- !u!1 &1043495227
GameObject:
  m_ObjectHideFlags: 0
  m_PrefabParentObject: {fileID: 0}
  m_PrefabInternal: {fileID: 0}
  serializedVersion: 4
  m_Component:
  - 4: {fileID: 1043495231}
  - 114: {fileID: 1043495230}
  - 114: {fileID: 1043495229}
  - 114: {fileID: 1043495228}
  m_Layer: 0
  m_Name: EventSystem
  m_TagString: Untagged
  m_Icon: {fileID: 0}
  m_NavMeshLayer: 0
  m_StaticEditorFlags: 0
  m_IsActive: 1
--- !u!114 &1043495228
MonoBehaviour:
  m_ObjectHideFlags: 0
  m_PrefabParentObject: {fileID: 0}
  m_PrefabInternal: {fileID: 0}
  m_GameObject: {fileID: 1043495227}
  m_Enabled: 1
  m_EditorHideFlags: 0
  m_Script: {fileID: 1997211142, guid: f5f67c52d1564df4a8936ccd202a3bd8, type: 3}
  m_Name: 
  m_EditorClassIdentifier: 
  m_AllowActivationOnStandalone: 0
--- !u!114 &1043495229
MonoBehaviour:
  m_ObjectHideFlags: 0
  m_PrefabParentObject: {fileID: 0}
  m_PrefabInternal: {fileID: 0}
  m_GameObject: {fileID: 1043495227}
  m_Enabled: 1
  m_EditorHideFlags: 0
  m_Script: {fileID: 1077351063, guid: f5f67c52d1564df4a8936ccd202a3bd8, type: 3}
  m_Name: 
  m_EditorClassIdentifier: 
  m_HorizontalAxis: Horizontal
  m_VerticalAxis: Vertical
  m_SubmitButton: Submit
  m_CancelButton: Cancel
  m_InputActionsPerSecond: 10
  m_AllowActivationOnMobileDevice: 0
--- !u!114 &1043495230
MonoBehaviour:
  m_ObjectHideFlags: 0
  m_PrefabParentObject: {fileID: 0}
  m_PrefabInternal: {fileID: 0}
  m_GameObject: {fileID: 1043495227}
  m_Enabled: 1
  m_EditorHideFlags: 0
  m_Script: {fileID: -619905303, guid: f5f67c52d1564df4a8936ccd202a3bd8, type: 3}
  m_Name: 
  m_EditorClassIdentifier: 
  m_FirstSelected: {fileID: 0}
  m_sendNavigationEvents: 1
  m_DragThreshold: 5
--- !u!4 &1043495231
Transform:
  m_ObjectHideFlags: 0
  m_PrefabParentObject: {fileID: 0}
  m_PrefabInternal: {fileID: 0}
  m_GameObject: {fileID: 1043495227}
  m_LocalRotation: {x: 0, y: 0, z: 0, w: 1}
  m_LocalPosition: {x: -.45709905, y: 1.26111317, z: 95}
  m_LocalScale: {x: .0230968185, y: .0230968185, z: .0230968185}
  m_Children: []
  m_Father: {fileID: 0}
  m_RootOrder: 0
--- !u!1001 &1272013284
Prefab:
  m_ObjectHideFlags: 0
  serializedVersion: 2
  m_Modification:
    m_TransformParent: {fileID: 0}
    m_Modifications:
    - target: {fileID: 409538, guid: 8257010043e00d44583c06455b1336ba, type: 2}
      propertyPath: m_LocalPosition.x
      value: -.251900613
      objectReference: {fileID: 0}
    - target: {fileID: 409538, guid: 8257010043e00d44583c06455b1336ba, type: 2}
      propertyPath: m_LocalPosition.y
      value: -.0503800921
      objectReference: {fileID: 0}
    - target: {fileID: 409538, guid: 8257010043e00d44583c06455b1336ba, type: 2}
      propertyPath: m_LocalPosition.z
      value: 0
      objectReference: {fileID: 0}
    - target: {fileID: 409538, guid: 8257010043e00d44583c06455b1336ba, type: 2}
      propertyPath: m_LocalRotation.x
      value: 0
      objectReference: {fileID: 0}
    - target: {fileID: 409538, guid: 8257010043e00d44583c06455b1336ba, type: 2}
      propertyPath: m_LocalRotation.y
      value: 0
      objectReference: {fileID: 0}
    - target: {fileID: 409538, guid: 8257010043e00d44583c06455b1336ba, type: 2}
      propertyPath: m_LocalRotation.z
      value: 0
      objectReference: {fileID: 0}
    - target: {fileID: 409538, guid: 8257010043e00d44583c06455b1336ba, type: 2}
      propertyPath: m_LocalRotation.w
      value: 1
      objectReference: {fileID: 0}
    - target: {fileID: 409538, guid: 8257010043e00d44583c06455b1336ba, type: 2}
      propertyPath: m_RootOrder
      value: 1
      objectReference: {fileID: 0}
    - target: {fileID: 109648, guid: 8257010043e00d44583c06455b1336ba, type: 2}
      propertyPath: m_IsActive
      value: 0
      objectReference: {fileID: 0}
    m_RemovedComponents: []
  m_ParentPrefab: {fileID: 100100000, guid: 8257010043e00d44583c06455b1336ba, type: 2}
  m_IsPrefabParent: 0
--- !u!1001 &1430012353
Prefab:
  m_ObjectHideFlags: 0
  serializedVersion: 2
  m_Modification:
    m_TransformParent: {fileID: 0}
    m_Modifications:
    - target: {fileID: 423888, guid: 7b66372b57cf2464b87a41509b20e176, type: 2}
      propertyPath: m_LocalPosition.x
      value: -.251900613
      objectReference: {fileID: 0}
    - target: {fileID: 423888, guid: 7b66372b57cf2464b87a41509b20e176, type: 2}
      propertyPath: m_LocalPosition.y
      value: -.0503800921
      objectReference: {fileID: 0}
    - target: {fileID: 423888, guid: 7b66372b57cf2464b87a41509b20e176, type: 2}
      propertyPath: m_LocalPosition.z
      value: 0
      objectReference: {fileID: 0}
    - target: {fileID: 423888, guid: 7b66372b57cf2464b87a41509b20e176, type: 2}
      propertyPath: m_LocalRotation.x
      value: 0
      objectReference: {fileID: 0}
    - target: {fileID: 423888, guid: 7b66372b57cf2464b87a41509b20e176, type: 2}
      propertyPath: m_LocalRotation.y
      value: 0
      objectReference: {fileID: 0}
    - target: {fileID: 423888, guid: 7b66372b57cf2464b87a41509b20e176, type: 2}
      propertyPath: m_LocalRotation.z
      value: 0
      objectReference: {fileID: 0}
    - target: {fileID: 423888, guid: 7b66372b57cf2464b87a41509b20e176, type: 2}
      propertyPath: m_LocalRotation.w
      value: 1
      objectReference: {fileID: 0}
    - target: {fileID: 423888, guid: 7b66372b57cf2464b87a41509b20e176, type: 2}
      propertyPath: m_RootOrder
      value: 5
      objectReference: {fileID: 0}
    - target: {fileID: 139642, guid: 7b66372b57cf2464b87a41509b20e176, type: 2}
      propertyPath: m_IsActive
      value: 0
      objectReference: {fileID: 0}
    m_RemovedComponents: []
  m_ParentPrefab: {fileID: 100100000, guid: 7b66372b57cf2464b87a41509b20e176, type: 2}
  m_IsPrefabParent: 0
--- !u!1001 &1662449636
Prefab:
  m_ObjectHideFlags: 0
  serializedVersion: 2
  m_Modification:
    m_TransformParent: {fileID: 0}
    m_Modifications:
    - target: {fileID: 408470, guid: 96bede51ea3f8b045b5fa67d806698cd, type: 2}
      propertyPath: m_LocalPosition.x
      value: 1.26813197
      objectReference: {fileID: 0}
    - target: {fileID: 408470, guid: 96bede51ea3f8b045b5fa67d806698cd, type: 2}
      propertyPath: m_LocalPosition.y
      value: 1.19751024
      objectReference: {fileID: 0}
    - target: {fileID: 408470, guid: 96bede51ea3f8b045b5fa67d806698cd, type: 2}
      propertyPath: m_LocalPosition.z
      value: 0
      objectReference: {fileID: 0}
    - target: {fileID: 408470, guid: 96bede51ea3f8b045b5fa67d806698cd, type: 2}
      propertyPath: m_LocalRotation.x
      value: 0
      objectReference: {fileID: 0}
    - target: {fileID: 408470, guid: 96bede51ea3f8b045b5fa67d806698cd, type: 2}
      propertyPath: m_LocalRotation.y
      value: 0
      objectReference: {fileID: 0}
    - target: {fileID: 408470, guid: 96bede51ea3f8b045b5fa67d806698cd, type: 2}
      propertyPath: m_LocalRotation.z
      value: 0
      objectReference: {fileID: 0}
    - target: {fileID: 408470, guid: 96bede51ea3f8b045b5fa67d806698cd, type: 2}
      propertyPath: m_LocalRotation.w
      value: 1
      objectReference: {fileID: 0}
    - target: {fileID: 408470, guid: 96bede51ea3f8b045b5fa67d806698cd, type: 2}
      propertyPath: m_RootOrder
      value: 3
      objectReference: {fileID: 0}
    - target: {fileID: 181356, guid: 96bede51ea3f8b045b5fa67d806698cd, type: 2}
      propertyPath: m_IsActive
      value: 0
      objectReference: {fileID: 0}
    m_RemovedComponents: []
  m_ParentPrefab: {fileID: 100100000, guid: 96bede51ea3f8b045b5fa67d806698cd, type: 2}
  m_IsPrefabParent: 0
--- !u!1001 &1824206611
Prefab:
  m_ObjectHideFlags: 0
  serializedVersion: 2
  m_Modification:
    m_TransformParent: {fileID: 0}
    m_Modifications:
    - target: {fileID: 489582, guid: 880e41e982c29f147814e6e3a27b800c, type: 2}
      propertyPath: m_LocalPosition.x
      value: 1.50061417
      objectReference: {fileID: 0}
    - target: {fileID: 489582, guid: 880e41e982c29f147814e6e3a27b800c, type: 2}
      propertyPath: m_LocalPosition.y
      value: 1.61865819
      objectReference: {fileID: 0}
    - target: {fileID: 489582, guid: 880e41e982c29f147814e6e3a27b800c, type: 2}
      propertyPath: m_LocalPosition.z
      value: 0
      objectReference: {fileID: 0}
    - target: {fileID: 489582, guid: 880e41e982c29f147814e6e3a27b800c, type: 2}
      propertyPath: m_LocalRotation.x
      value: 0
      objectReference: {fileID: 0}
    - target: {fileID: 489582, guid: 880e41e982c29f147814e6e3a27b800c, type: 2}
      propertyPath: m_LocalRotation.y
      value: 0
      objectReference: {fileID: 0}
    - target: {fileID: 489582, guid: 880e41e982c29f147814e6e3a27b800c, type: 2}
      propertyPath: m_LocalRotation.z
      value: 0
      objectReference: {fileID: 0}
    - target: {fileID: 489582, guid: 880e41e982c29f147814e6e3a27b800c, type: 2}
      propertyPath: m_LocalRotation.w
      value: 1
      objectReference: {fileID: 0}
    - target: {fileID: 489582, guid: 880e41e982c29f147814e6e3a27b800c, type: 2}
      propertyPath: m_RootOrder
      value: 4
      objectReference: {fileID: 0}
    - target: {fileID: 194368, guid: 880e41e982c29f147814e6e3a27b800c, type: 2}
      propertyPath: m_IsActive
      value: 0
      objectReference: {fileID: 0}
    m_RemovedComponents: []
  m_ParentPrefab: {fileID: 100100000, guid: 880e41e982c29f147814e6e3a27b800c, type: 2}
  m_IsPrefabParent: 0
